<svg width="21" height="20" viewBox="0 0 21 20" fill="none" xmlns="http://www.w3.org/2000/svg">
<g clip-path="url(#clip0_44_5364)">
<path d="M15.7773 15.8333V19.75C16.3655 19.5484 16.9007 19.2168 17.3432 18.78L19.5565 16.565C19.9938 16.1231 20.3257 15.5881 20.5273 15H16.6107C16.3897 15 16.1777 15.0878 16.0214 15.2441C15.8651 15.4004 15.7773 15.6123 15.7773 15.8333Z" fill="#667C8A"/>
<path d="M6.75401 11.5234C6.44436 11.833 6.19873 12.2005 6.03115 12.605C5.86357 13.0095 5.77733 13.4431 5.77734 13.8809V15.0001H6.89651C7.33436 15.0001 7.76791 14.9139 8.17242 14.7463C8.57693 14.5787 8.94445 14.3331 9.25401 14.0234L18.694 4.58344C19.0255 4.25192 19.2118 3.80228 19.2118 3.33344C19.2118 2.8646 19.0255 2.41496 18.694 2.08344C18.3625 1.75192 17.9129 1.56567 17.444 1.56567C16.9752 1.56567 16.5255 1.75192 16.194 2.08344L6.75401 11.5234Z" fill="#667C8A"/>
<path d="M20.7773 4.12667C20.6354 4.74484 20.3237 5.3111 19.8773 5.76167L10.4323 15.2025C9.96906 15.6682 9.41801 16.0374 8.81109 16.2888C8.20416 16.5401 7.55341 16.6685 6.89651 16.6667H5.77734C5.33532 16.6667 4.91139 16.4911 4.59883 16.1785C4.28627 15.8659 4.11068 15.442 4.11068 15V13.8808C4.10885 13.224 4.2374 12.5733 4.48888 11.9665C4.74036 11.3597 5.10976 10.8088 5.57568 10.3458L15.0157 0.905C15.4629 0.457949 16.0259 0.144533 16.6415 0C16.6307 0 16.6215 0 16.6107 0H4.94401C3.83935 0.00132321 2.78031 0.440735 1.99919 1.22185C1.21808 2.00296 0.778667 3.062 0.777344 4.16667L0.777344 15.8333C0.778667 16.938 1.21808 17.997 1.99919 18.7782C2.78031 19.5593 3.83935 19.9987 4.94401 20H14.1107V15.8333C14.1107 15.1703 14.3741 14.5344 14.8429 14.0656C15.3118 13.5967 15.9476 13.3333 16.6107 13.3333H20.7773V4.16667C20.7773 4.15333 20.7773 4.14083 20.7773 4.12667Z" fill="#667C8A"/>
</g>
<defs>
<clipPath id="clip0_44_5364">
<rect width="20" height="20" fill="white" transform="translate(0.777344)"/>
</clipPath>
</defs>
</svg>
