<svg width="20" height="20" viewBox="0 0 20 20" fill="none" xmlns="http://www.w3.org/2000/svg">
<g clip-path="url(#clip0_64_209)">
<path d="M16.3016 5.83329C16.3464 5.57791 16.3347 5.31582 16.2674 5.06543C16.2001 4.81504 16.0788 4.58242 15.912 4.38389C15.7453 4.18536 15.5371 4.02573 15.3021 3.91622C15.067 3.80671 14.8109 3.74996 14.5516 3.74996H5.4483C5.18902 3.74996 4.93289 3.80671 4.69787 3.91622C4.46286 4.02573 4.25466 4.18536 4.0879 4.38389C3.92113 4.58242 3.79984 4.81504 3.73253 5.06543C3.66523 5.31582 3.65354 5.57791 3.6983 5.83329M14.5833 3.74996C14.6066 3.53329 14.6191 3.42579 14.6191 3.33663C14.62 2.9247 14.4684 2.52704 14.1934 2.22035C13.9184 1.91365 13.5395 1.71966 13.13 1.67579C13.0416 1.66663 12.9333 1.66663 12.7166 1.66663H7.2833C7.06663 1.66663 6.95746 1.66663 6.86913 1.67579C6.45955 1.71966 6.08072 1.91365 5.80573 2.22035C5.53074 2.52704 5.37906 2.9247 5.37996 3.33663C5.37996 3.42579 5.39163 3.53413 5.4158 3.74996" stroke="#444BF6" stroke-width="1.5"/>
<path d="M12.5 15H7.5" stroke="#444BF6" stroke-width="1.5" stroke-linecap="round"/>
<path d="M1.98666 11.4941C1.61416 8.85742 1.42832 7.53992 2.21832 6.68575C3.00832 5.83325 4.41499 5.83325 7.22666 5.83325H12.7733C15.585 5.83325 16.9917 5.83325 17.7817 6.68659C18.5708 7.53992 18.385 8.85742 18.0133 11.4941L17.6617 13.9941C17.37 16.0608 17.2242 17.0949 16.4767 17.7141C15.7292 18.3333 14.6267 18.3333 12.4208 18.3333H7.57916C5.37416 18.3333 4.27082 18.3333 3.52332 17.7141C2.77582 17.0949 2.62999 16.0616 2.33832 13.9941L1.98666 11.4941Z" stroke="#444BF6" stroke-width="1.5"/>
</g>
<defs>
<clipPath id="clip0_64_209">
<rect width="20" height="20" fill="white"/>
</clipPath>
</defs>
</svg>
