<svg width="18" height="18" viewBox="0 0 18 18" fill="none" xmlns="http://www.w3.org/2000/svg">
<g clip-path="url(#clip0_154_3771)">
<path d="M7.5 3H6C5.175 3 4.5 2.325 4.5 1.5C4.5 0.675 5.175 0 6 0H7.5C8.325 0 9 0.675 9 1.5C9 2.325 8.325 3 7.5 3ZM15 6.75H12C10.3425 6.75 9 8.0925 9 9.75V15C9 16.6575 10.3425 18 12 18H15C16.6575 18 18 16.6575 18 15V9.75C18 8.0925 16.6575 6.75 15 6.75ZM15 14.25H12C11.5875 14.25 11.25 13.9125 11.25 13.5C11.25 13.0875 11.5875 12.75 12 12.75H15C15.4125 12.75 15.75 13.0875 15.75 13.5C15.75 13.9125 15.4125 14.25 15 14.25ZM15 11.25H12C11.5875 11.25 11.25 10.9125 11.25 10.5C11.25 10.0875 11.5875 9.75 12 9.75H15C15.4125 9.75 15.75 10.0875 15.75 10.5C15.75 10.9125 15.4125 11.25 15 11.25ZM12 5.25H13.5C13.5 3.435 12.2025 1.935 10.4925 1.59C10.44 3.2025 9.1275 4.5 7.5 4.5H6C4.3725 4.5 3.045 3.195 3.0075 1.575C1.2975 1.92 0 3.435 0 5.25V14.25C0 16.32 1.68 18 3.75 18H8.6475C7.935 17.205 7.5 16.155 7.5 15V9.75C7.5 7.2675 9.5175 5.25 12 5.25Z" fill="#667C8A"/>
</g>
<defs>
<clipPath id="clip0_154_3771">
<rect width="18" height="18" fill="white"/>
</clipPath>
</defs>
</svg>
